Lab1_Continuous assignment/simulation/qsim/lab1.msim.vcd
$comment
	File created using the following command:
		vcd file lab1.msim.vcd -direction
$end
$date
	Sun Mar 08 17:17:29 2026
$end
$version
	ModelSim Version 10.1d
$end
$timescale
	1ps
$end
$scope module cau3c_vlg_vec_tst $end
$var reg 1 ! CLK $end
$var reg 1 " D $end
$var wire 1 # Qa $end
$var wire 1 $ Qan $end
$var wire 1 % Qb $end
$var wire 1 & Qbn $end
$var wire 1 ' Qc $end
$var wire 1 ( Qcn $end
$var wire 1 ) sampler $end
$scope module i1 $end
$var wire 1 * gnd $end
$var wire 1 + vcc $end
$var wire 1 , unknown $end
$var tri1 1 - devclrn $end
$var tri1 1 . devpor $end
$var tri1 1 / devoe $end
$var wire 1 0 D~combout $end
$var wire 1 1 CLK~combout $end
$var wire 1 2 m1|Qa~1_combout $end
$var wire 1 3 m1|Qb~0_combout $end
$var wire 1 4 m2|Master|Qa~1_combout $end
$var wire 1 5 m2|Slave|Qa~1_combout $end
$var wire 1 6 m2|Slave|Qb~0_combout $end
$var wire 1 7 m3|Master|Qa~1_combout $end
$var wire 1 8 m3|Slave|Qa~1_combout $end
$var wire 1 9 m3|Slave|Qb~0_combout $end
$upscope $end
$upscope $end
$enddefinitions $end
#0
$dumpvars
0!
1"
x#
x$
x%
x&
x'
x(
x)
0*
1+
x,
1-
1.
1/
10
01
x2
x3
04
x5
x6
x7
x8
x9
$end
#10000
1!
0"
11
00
0)
17
05
13
12
06
1$
1%
0#
0&
#20000
0!
1"
01
10
1)
19
18
1(
0'
#30000
1!
11
0)
07
02
03
1#
0$
#40000
0!
01
1)
08
09
1'
0(
#50000
1!
11
0)
#60000
0"
0!
00
01
1)
14
#70000
1"
1!
10
11
0)
16
15
1&
0%
#80000
0"
0!
00
01
1)
#90000
1!
11
0)
17
13
12
1$
0#
#100000
1"
0!
10
01
1)
04
19
18
1(
0'
#110000
0"
1!
00
11
0)
05
06
1%
0&
#120000
1"
0!
10
01
1)
#130000
1!
11
0)
07
02
03
1#
0$
#140000
0!
01
1)
08
09
1'
0(
#150000
1!
11
0)
#160000
0"
0!
00
01
1)
14
#170000
1"
1!
10
11
0)
16
15
1&
0%
#180000
0"
0!
00
01
1)
#190000
1"
1!
10
11
0)
#200000
0!
01
1)
04
#210000
1!
11
0)
05
06
1%
0&
#220000
0"
0!
00
01
1)
14
#230000
1"
1!
10
11
0)
16
15
1&
0%
#240000
0!
01
1)
04
#250000
0"
1!
00
11
0)
17
13
12
05
06
1$
0#
1%
0&
#260000
1"
0!
10
01
1)
19
18
1(
0'
#270000
1!
11
0)
07
02
03
1#
0$
#280000
0!
01
1)
08
09
1'
0(
#290000
1!
11
0)
#300000
0"
0!
00
01
1)
14
#310000
1!
11
0)
17
16
15
13
12
1&
1$
0%
0#
#320000
0!
01
1)
19
18
1(
0'
#330000
1!
11
0)
#340000
1"
0!
10
01
1)
04
#350000
1!
11
0)
07
05
02
06
03
1%
1#
0&
0$
#360000
0"
0!
00
01
1)
14
08
09
1'
0(
#370000
1!
11
0)
17
16
15
13
12
1&
1$
0%
0#
#380000
1"
0!
10
01
1)
04
19
18
1(
0'
#390000
1!
11
0)
07
05
02
06
03
1%
1#
0&
0$
#400000
0!
01
1)
08
09
1'
0(
#410000
0"
1!
00
11
0)
17
13
12
1$
0#
#420000
1"
0!
10
01
1)
19
18
1(
0'
#430000
0"
1!
00
11
0)
#440000
1"
0!
10
01
1)
#450000
0"
1!
00
11
0)
#460000
1"
0!
10
01
1)
#470000
0"
1!
00
11
0)
#480000
1"
0!
10
01
1)
#490000
0"
1!
00
11
0)
#500000
0!
01
1)
14
#510000
1"
1!
10
11
0)
07
02
16
15
03
1&
1#
0%
0$
#520000
0!
01
1)
08
04
09
1'
0(
#530000
0"
1!
00
11
0)
17
13
12
05
06
1$
0#
1%
0&
#540000
1"
0!
10
01
1)
19
18
1(
0'
#550000
0"
1!
00
11
0)
#560000
0!
01
1)
14
#570000
1!
11
0)
16
15
1&
0%
#580000
0!
01
1)
#590000
1"
1!
10
11
0)
07
02
03
1#
0$
#600000
0!
01
1)
08
04
09
1'
0(
#610000
1!
11
0)
05
06
1%
0&
#620000
0!
01
1)
#630000
1!
11
0)
#640000
0!
01
1)
#650000
1!
11
0)
#660000
0!
01
1)
#670000
1!
11
0)
#680000
0"
0!
00
01
1)
14
#690000
1"
1!
10
11
0)
16
15
1&
0%
#700000
0!
01
1)
04
#710000
1!
11
0)
05
06
1%
0&
#720000
0!
01
1)
#730000
0"
1!
00
11
0)
17
13
12
1$
0#
#740000
0!
01
1)
19
18
14
1(
0'
#750000
1!
11
0)
16
15
1&
0%
#760000
0!
01
1)
#770000
1!
11
0)
#780000
0!
01
1)
#790000
1!
11
0)
#800000
0!
01
1)
#810000
1!
11
0)
#820000
0!
01
1)
#830000
1"
1!
10
11
0)
07
02
03
1#
0$
#840000
0"
0!
00
01
1)
08
09
1'
0(
#850000
1"
1!
10
11
0)
#860000
0!
01
1)
04
#870000
1!
11
0)
05
06
1%
0&
#880000
0!
01
1)
#890000
1!
11
0)
#900000
0"
0!
00
01
1)
14
#910000
1"
1!
10
11
0)
16
15
1&
0%
#920000
0"
0!
00
01
1)
#930000
1"
1!
10
11
0)
#940000
0!
01
1)
04
#950000
1!
11
0)
05
06
1%
0&
#960000
0"
0!
00
01
1)
14
#970000
1"
1!
10
11
0)
16
15
1&
0%
#980000
0!
01
1)
04
#990000
1!
11
0)
05
06
1%
0&
